     1, Наименование                                      , C, 1000
     2, ОКПО                                              , C,    8
     3, ОКОПФ                                             , C,    5
     4, ОКФС                                              , C,    2
     5, ОКВЭД                                             , C,    8
     6, ИНН                                               , C,   10
     7, Код единицы измерения                             , C,    3
     8, Тип отчета                                        , C,    1
     9, 11103                                             , N,   15
    10, 11104                                             , N,   15
    11, 11203                                             , N,   15
    12, 11204                                             , N,   15
    13, 11303                                             , N,   15
    14, 11304                                             , N,   15
    15, 11403                                             , N,   15
    16, 11404                                             , N,   15
    17, 11503                                             , N,   15
    18, 11504                                             , N,   15
    19, 11603                                             , N,   15
    20, 11604                                             , N,   15
    21, 11703                                             , N,   15
    22, 11704                                             , N,   15
    23, 11803                                             , N,   15
    24, 11804                                             , N,   15
    25, 11903                                             , N,   15
    26, 11904                                             , N,   15
    27, 11003                                             , N,   15
    28, 11004                                             , N,   15
    29, 12103                                             , N,   15
    30, 12104                                             , N,   15
    31, 12203                                             , N,   15
    32, 12204                                             , N,   15
    33, 12303                                             , N,   15
    34, 12304                                             , N,   15
    35, 12403                                             , N,   15
    36, 12404                                             , N,   15
    37, 12503                                             , N,   15
    38, 12504                                             , N,   15
    39, 12603                                             , N,   15
    40, 12604                                             , N,   15
    41, 12003                                             , N,   15
    42, 12004                                             , N,   15
    43, 16003                                             , N,   15
    44, 16004                                             , N,   15
    45, 13103                                             , N,   15
    46, 13104                                             , N,   15
    47, 13203                                             , N,   15
    48, 13204                                             , N,   15
    49, 13403                                             , N,   15
    50, 13404                                             , N,   15
    51, 13503                                             , N,   15
    52, 13504                                             , N,   15
    53, 13603                                             , N,   15
    54, 13604                                             , N,   15
    55, 13703                                             , N,   15
    56, 13704                                             , N,   15
    57, 13003                                             , N,   15
    58, 13004                                             , N,   15
    59, 14103                                             , N,   15
    60, 14104                                             , N,   15
    61, 14203                                             , N,   15
    62, 14204                                             , N,   15
    63, 14303                                             , N,   15
    64, 14304                                             , N,   15
    65, 14503                                             , N,   15
    66, 14504                                             , N,   15
    67, 14003                                             , N,   15
    68, 14004                                             , N,   15
    69, 15103                                             , N,   15
    70, 15104                                             , N,   15
    71, 15203                                             , N,   15
    72, 15204                                             , N,   15
    73, 15303                                             , N,   15
    74, 15304                                             , N,   15
    75, 15403                                             , N,   15
    76, 15404                                             , N,   15
    77, 15503                                             , N,   15
    78, 15504                                             , N,   15
    79, 15003                                             , N,   15
    80, 15004                                             , N,   15
    81, 17003                                             , N,   15
    82, 17004                                             , N,   15
    83, 21103                                             , N,   15
    84, 21104                                             , N,   15
    85, 21203                                             , N,   15
    86, 21204                                             , N,   15
    87, 21003                                             , N,   15
    88, 21004                                             , N,   15
    89, 22103                                             , N,   15
    90, 22104                                             , N,   15
    91, 22203                                             , N,   15
    92, 22204                                             , N,   15
    93, 22003                                             , N,   15
    94, 22004                                             , N,   15
    95, 23103                                             , N,   15
    96, 23104                                             , N,   15
    97, 23203                                             , N,   15
    98, 23204                                             , N,   15
    99, 23303                                             , N,   15
   100, 23304                                             , N,   15
   101, 23403                                             , N,   15
   102, 23404                                             , N,   15
   103, 23503                                             , N,   15
   104, 23504                                             , N,   15
   105, 23003                                             , N,   15
   106, 23004                                             , N,   15
   107, 24103                                             , N,   15
   108, 24104                                             , N,   15
   109, 24213                                             , N,   15
   110, 24214                                             , N,   15
   111, 24303                                             , N,   15
   112, 24304                                             , N,   15
   113, 24503                                             , N,   15
   114, 24504                                             , N,   15
   115, 24603                                             , N,   15
   116, 24604                                             , N,   15
   117, 24003                                             , N,   15
   118, 24004                                             , N,   15
   119, 25103                                             , N,   15
   120, 25104                                             , N,   15
   121, 25203                                             , N,   15
   122, 25204                                             , N,   15
   123, 25003                                             , N,   15
   124, 25004                                             , N,   15
   125, 32003                                             , N,   15
   126, 32004                                             , N,   15
   127, 32005                                             , N,   15
   128, 32006                                             , N,   15
   129, 32007                                             , N,   15
   130, 32008                                             , N,   15
   131, 33103                                             , N,   15
   132, 33104                                             , N,   15
   133, 33105                                             , N,   15
   134, 33106                                             , N,   15
   135, 33107                                             , N,   15
   136, 33108                                             , N,   15
   137, 33117                                             , N,   15
   138, 33118                                             , N,   15
   139, 33125                                             , N,   15
   140, 33127                                             , N,   15
   141, 33128                                             , N,   15
   142, 33135                                             , N,   15
   143, 33137                                             , N,   15
   144, 33138                                             , N,   15
   145, 33143                                             , N,   15
   146, 33144                                             , N,   15
   147, 33145                                             , N,   15
   148, 33148                                             , N,   15
   149, 33153                                             , N,   15
   150, 33154                                             , N,   15
   151, 33155                                             , N,   15
   152, 33157                                             , N,   15
   153, 33163                                             , N,   15
   154, 33164                                             , N,   15
   155, 33165                                             , N,   15
   156, 33166                                             , N,   15
   157, 33167                                             , N,   15
   158, 33168                                             , N,   15
   159, 33203                                             , N,   15
   160, 33204                                             , N,   15
   161, 33205                                             , N,   15
   162, 33206                                             , N,   15
   163, 33207                                             , N,   15
   164, 33208                                             , N,   15
   165, 33217                                             , N,   15
   166, 33218                                             , N,   15
   167, 33225                                             , N,   15
   168, 33227                                             , N,   15
   169, 33228                                             , N,   15
   170, 33235                                             , N,   15
   171, 33237                                             , N,   15
   172, 33238                                             , N,   15
   173, 33243                                             , N,   15
   174, 33244                                             , N,   15
   175, 33245                                             , N,   15
   176, 33247                                             , N,   15
   177, 33248                                             , N,   15
   178, 33253                                             , N,   15
   179, 33254                                             , N,   15
   180, 33255                                             , N,   15
   181, 33257                                             , N,   15
   182, 33258                                             , N,   15
   183, 33263                                             , N,   15
   184, 33264                                             , N,   15
   185, 33265                                             , N,   15
   186, 33266                                             , N,   15
   187, 33267                                             , N,   15
   188, 33268                                             , N,   15
   189, 33277                                             , N,   15
   190, 33278                                             , N,   15
   191, 33305                                             , N,   15
   192, 33306                                             , N,   15
   193, 33307                                             , N,   15
   194, 33406                                             , N,   15
   195, 33407                                             , N,   15
   196, 33003                                             , N,   15
   197, 33004                                             , N,   15
   198, 33005                                             , N,   15
   199, 33006                                             , N,   15
   200, 33007                                             , N,   15
   201, 33008                                             , N,   15
   202, 36003                                             , N,   15
   203, 36004                                             , N,   15
   204, 41103                                             , N,   15
   205, 41113                                             , N,   15
   206, 41123                                             , N,   15
   207, 41133                                             , N,   15
   208, 41193                                             , N,   15
   209, 41203                                             , N,   15
   210, 41213                                             , N,   15
   211, 41223                                             , N,   15
   212, 41233                                             , N,   15
   213, 41243                                             , N,   15
   214, 41293                                             , N,   15
   215, 41003                                             , N,   15
   216, 42103                                             , N,   15
   217, 42113                                             , N,   15
   218, 42123                                             , N,   15
   219, 42133                                             , N,   15
   220, 42143                                             , N,   15
   221, 42193                                             , N,   15
   222, 42203                                             , N,   15
   223, 42213                                             , N,   15
   224, 42223                                             , N,   15
   225, 42233                                             , N,   15
   226, 42243                                             , N,   15
   227, 42293                                             , N,   15
   228, 42003                                             , N,   15
   229, 43103                                             , N,   15
   230, 43113                                             , N,   15
   231, 43123                                             , N,   15
   232, 43133                                             , N,   15
   233, 43143                                             , N,   15
   234, 43193                                             , N,   15
   235, 43203                                             , N,   15
   236, 43213                                             , N,   15
   237, 43223                                             , N,   15
   238, 43233                                             , N,   15
   239, 43293                                             , N,   15
   240, 43003                                             , N,   15
   241, 44003                                             , N,   15
   242, 44903                                             , N,   15
   243, 61003                                             , N,   15
   244, 62103                                             , N,   15
   245, 62153                                             , N,   15
   246, 62203                                             , N,   15
   247, 62303                                             , N,   15
   248, 62403                                             , N,   15
   249, 62503                                             , N,   15
   250, 62003                                             , N,   15
   251, 63103                                             , N,   15
   252, 63113                                             , N,   15
   253, 63123                                             , N,   15
   254, 63133                                             , N,   15
   255, 63203                                             , N,   15
   256, 63213                                             , N,   15
   257, 63223                                             , N,   15
   258, 63233                                             , N,   15
   259, 63243                                             , N,   15
   260, 63253                                             , N,   15
   261, 63263                                             , N,   15
   262, 63303                                             , N,   15
   263, 63503                                             , N,   15
   264, 63003                                             , N,   15
   265, 64003                                             , N,   15
   266, Дата актуализации                                 , C,   10